<?xml version="1.0" standalone="no"?>
<!DOCTYPE svg PUBLIC "-//W3C//DTD SVG 20010904//EN"
 "http://www.w3.org/TR/2001/REC-SVG-20010904/DTD/svg10.dtd">
<svg version="1.0" xmlns="http://www.w3.org/2000/svg"
 width="260.000000pt" height="260.000000pt" viewBox="0 0 260.000000 260.000000"
 preserveAspectRatio="xMidYMid meet">
<metadata>
Created by potrace 1.11, written by Peter Selinger 2001-2013
</metadata>
<g transform="translate(0.000000,260.000000) scale(0.100000,-0.100000)"
fill="#000000" stroke="none">
<path d="M485 2283 c-109 -58 -255 -235 -350 -423 -32 -64 -90 -222 -101 -274
-27 -131 -33 -195 -29 -326 4 -167 25 -284 78 -423 152 -395 477 -686 894
-797 112 -30 159 -35 338 -35 127 1 181 5 261 23 399 88 731 353 903 722 88
189 115 318 115 540 0 183 -14 273 -66 420 -103 292 -344 590 -478 590 -60 0
-123 -51 -136 -111 -11 -56 5 -88 92 -177 151 -153 258 -344 289 -514 3 -13 9
-45 14 -72 9 -51 8 -286 -1 -302 -4 -5 -9 -27 -12 -49 -18 -113 -104 -299
-188 -409 -93 -121 -241 -237 -390 -305 -180 -82 -407 -111 -597 -75 -120 23
-309 96 -376 146 -266 199 -380 370 -451 680 -12 50 -11 261 1 335 35 211 138
406 299 565 59 58 77 83 87 119 11 40 10 50 -7 85 -36 74 -120 104 -189 67z"/>
<path d="M1215 2048 c-76 -8 -187 -40 -250 -71 -100 -49 -225 -153 -266 -221
-50 -82 5 -200 96 -207 72 -5 83 0 158 74 112 109 219 155 359 155 270 -1 491
-228 483 -493 -5 -134 -52 -244 -145 -334 -49 -48 -143 -108 -177 -113 -4 -1
-26 -7 -48 -13 -153 -45 -338 8 -463 132 -35 36 -78 71 -96 78 -92 37 -191
-38 -185 -138 3 -50 25 -86 93 -151 141 -134 321 -206 516 -208 343 -4 639
210 738 534 27 87 35 137 34 228 -1 95 -8 139 -34 220 -54 168 -158 307 -306
406 -45 30 -124 71 -157 81 -148 44 -230 53 -350 41z"/>
<path d="M1060 1403 c-61 -36 -80 -108 -46 -169 36 -64 54 -68 286 -68 223 0
237 3 276 62 22 34 22 101 -1 136 -36 54 -61 60 -278 61 -189 0 -201 -1 -237
-22z"/>
</g>
</svg>
